{
  "curb_ramp": {
    "ramp_width": [1086, 89, 42, 11, 8, 2],
    "approach_cross_slope": [556, 449, 126, 39, 6, 6, 56],
    "cracked_panel_count": [973, 209, 49, 6, 1],
    "ramp_running_slope": [927, 60, 61, 126, 64],
    "vertical_fault_count": [374, 333, 276, 169, 86],
    "detectable_warning_type": [264, 415, 30, 0, 316, 213],
    "obstruction": [1060, 178],
    "landing_dimensions": [557, 64, 41, 2, 1, 0, 57, 516],
    "gutter_cross_slope": [746, 220, 51, 7, 1, 0, 213],
    "detectable_warning_width": [462, 88, 100, 32, 27, 316, 213],
    "landing_slope": [254, 257, 101, 35, 13, 5, 57, 516],
    "gutter_running_slope": [747, 119, 76, 45, 19, 19, 213],
    "surface_condition": [667, 4, 33, 131, 378, 25],
    "flare_slope": [12, 2, 3, 3, 5, 9, 1204],
    "largest_vertical_fault": [377, 440, 421],
    "ramp_cross_slope": [720, 348, 115, 38, 12, 5],
    "condition": [385, 261, 296, 141, 155],
    "compliance": [318, 389, 282, 148, 101]
  },
  "sidewalk": {
    "compliance": [1.7, 6.7, 8.8, 17.7, 35.5],
    "cracked_panel_count": [14.3, 12.9, 10.8, 9.6, 22.9],
    "vertical_fault_count": [13.2, 14, 7.7, 12.6, 22.9],
    "max_cross_slope": [16.8, 20.7, 12.8, 8.4, 5.7, 6.1],
    "width": [51.4, 6.1, 5.3, 4.1, 2.8, 0.6],
    "surface_condition": [27.5, 1, 5.5, 3.9, 19, 13.7],
    "condition": [7.9, 5.1, 9.6, 11.2, 36.7],
    "largest_vertical_fault": [2.6, 10.6, 57.2],
    "obstruction_types": [46.6, 21, 2.9]
  },
  "crosswalk": {
    "width": [423, 6, 2, 2, 2, 1, 3],
    "cross_slope": [436, 1, 0, 1, 1, 0, 0],
    "compliance": [423, 7, 2, 3, 4]
  },
  "pedestrian_signal": {
    "compliance": [0, 0, 2, 2, 60],
    "button_position_appearance": [12, 62, 41, 35, 0],
    "button_height": [0, 0, 0, 58, 6, 0, 0, 0],
    "tactile_features": [3, 2],
    "button_size": [19, 26, 19, 0]
  }
}
