{
  "curb_ramp": {
    "ramp_width": [11124, 933, 724, 186, 99, 41],
    "approach_cross_slope": [5033, 5214, 1535, 431, 90, 32, 772],
    "cracked_panel_count": [11063, 1594, 334, 93, 23],
    "ramp_running_slope": [9338, 919, 578, 1174, 1098],
    "vertical_fault_count": [8812, 2886, 1101, 242, 66],
    "detectable_warning_type": [5192, 4461, 13, 0, 2523, 918],
    "obstruction": [11860, 1247],
    "landing_dimensions": [6745, 565, 108, 28, 5, 6, 602, 5048],
    "gutter_cross_slope": [8633, 2706, 658, 139, 35, 18, 918],
    "detectable_warning_width": [4565, 2300, 1806, 464, 531, 2523, 918],
    "landing_slope": [2563, 3019, 1187, 440, 190, 58, 602, 5048],
    "gutter_running_slope": [9784, 1372, 598, 240, 116, 79, 918],
    "surface_condition": [9685, 34, 346, 889, 1965, 188],
    "flare_slope": [154, 41, 42, 20, 22, 100, 12728],
    "largest_vertical_fault": [8833, 2905, 1369],
    "ramp_cross_slope": [7589, 3599, 1274, 434, 143, 68],
    "condition": [8383, 1815, 2176, 481, 252],
    "compliance": [5567, 3496, 2219, 1082, 743]
  },
  "sidewalk": {
    "compliance": [54, 143, 113.1, 188.8, 194.3],
    "cracked_panel_count": [260.6, 136.8, 109.8, 63.6, 122.7],
    "vertical_fault_count": [267.1, 180.4, 112.5, 67.1, 66.3],
    "max_cross_slope": [122.5, 281, 174, 70.3, 25.6, 20],
    "width": [539.3, 67.4, 61.4, 16.6, 6.5, 2.1],
    "surface_condition": [531, 8, 64.2, 11, 47.9, 31.4],
    "condition": [228.6, 153.2, 98.8, 106.6, 106.1],
    "largest_vertical_fault": [74.9, 253.4, 365],
    "obstruction_types": [563.4, 121.4, 8.6]
  },
  "crosswalk": {
    "width": [1227, 0, 0, 0, 0, 0, 5],
    "cross_slope": [1077, 54, 8, 2, 0, 0, 91],
    "compliance": [1168, 54, 8, 2, 0]
  },
  "pedestrian_signal": {
    "compliance": [74, 105, 63, 106, 355],
    "button_position_appearance": [359, 578, 368, 488, 192],
    "button_height": [0, 0, 0, 641, 18, 18, 1, 25],
    "tactile_features": [277, 132],
    "button_size": [501, 117, 60, 25]
  }
}
